

       oMMMMMMMMMMMMMMo
       oMMMMMMMMMMMMMMo             ooooo     ooo         ooooooooo.             o8o                  .
     ``:oooooooooooooo:``           `888'     `8'         `888   `Y88.           `"'                .o8
   /dNNMMMMMMMMMMMMMMMMNNd/          888       8           888   .d88' oooo d8b oooo  ooo. .oo.   .o888oo
  +MMMMMMMMMMMMMMMMMMMd:+MM+         888       8           888ooo88P'  `888""8P `888  `888P"Y88b    888
  sMMMMMMMMMMMMMMMMMMMmsyMMs         888       8  8888888  888          888      888   888   888    888
  sMMMMMMNhhhhhhhhhhNMMMMMMs         `88.    .8'           888          888      888   888   888    888 .
  sMMMMMMm`        `mMMMMMMs           `YbodP'            o888o        d888b    o888o o888o o888o   "888"
  /ssssdMm`        `mMdssss/
       oMm.````````.mMo                                                   Version : @project.version@
       oMMMMMMMMMMMMMMo
